<svg width="21" height="21" viewBox="0 0 21 21" fill="none" xmlns="http://www.w3.org/2000/svg">
<path d="M4.23948 13.9594C6.31076 16.4353 8.80413 18.3848 11.65 19.7642C12.7335 20.2777 14.1825 20.8869 15.7969 20.9913C15.897 20.9956 15.9927 21 16.0928 21C17.1763 21 18.0466 20.6258 18.7559 19.8556C18.7602 19.8512 18.7689 19.8425 18.7733 19.8338C19.0256 19.5292 19.3128 19.2551 19.6131 18.9635C19.8176 18.7677 20.0265 18.5632 20.2266 18.3543C21.1535 17.3883 21.1535 16.1612 20.2179 15.2257L17.6027 12.6104C17.1589 12.1492 16.628 11.9055 16.071 11.9055C15.514 11.9055 14.9788 12.1492 14.5219 12.6061L12.9641 14.1639C12.8205 14.0812 12.6726 14.0073 12.5333 13.9376C12.3593 13.8506 12.1982 13.7679 12.0547 13.6765C10.6361 12.7758 9.34806 11.6009 8.11661 10.091C7.49435 9.30336 7.07662 8.64194 6.78507 7.96747C7.19411 7.5976 7.57703 7.21032 7.9469 6.83174C8.07745 6.69685 8.21234 6.56196 8.34723 6.42706C8.81719 5.95711 9.06957 5.41318 9.06957 4.86055C9.06957 4.30792 8.82154 3.76399 8.34723 3.29403L7.05051 1.99731C6.89821 1.84501 6.75461 1.69706 6.60666 1.54476C6.31947 1.24886 6.01922 0.94426 5.72332 0.67012C5.27512 0.230626 4.7486 0 4.19162 0C3.63899 0 3.10811 0.230626 2.64251 0.674472L1.01508 2.30191C0.423281 2.8937 0.0882205 3.61169 0.0185976 4.44281C-0.0640795 5.4828 0.127383 6.58806 0.623446 7.92395C1.38495 9.99088 2.53372 11.9099 4.23948 13.9594ZM1.08035 4.53419C1.13256 3.95545 1.35449 3.47244 1.77222 3.0547L3.39096 1.43597C3.64334 1.19229 3.92183 1.0661 4.19162 1.0661C4.45706 1.0661 4.72684 1.19229 4.97488 1.44467C5.26642 1.71446 5.54056 1.99731 5.83646 2.29755C5.98441 2.44985 6.13671 2.60215 6.28901 2.75881L7.58573 4.05553C7.85552 4.32532 7.99477 4.59946 7.99477 4.86925C7.99477 5.13904 7.85552 5.41318 7.58573 5.68297C7.45084 5.81786 7.31595 5.95711 7.18105 6.092C6.77637 6.50104 6.39779 6.88831 5.98006 7.25818C5.97135 7.26689 5.967 7.27124 5.9583 7.27994C5.59713 7.64111 5.6537 7.98487 5.74073 8.24596C5.74508 8.25901 5.74943 8.26772 5.75378 8.28077C6.08884 9.08578 6.55444 9.85164 7.28113 10.7654C8.58656 12.3755 9.96161 13.6243 11.4759 14.586C11.663 14.7078 11.8632 14.8036 12.0503 14.8993C12.2244 14.9863 12.3854 15.069 12.529 15.1604C12.5464 15.1691 12.5594 15.1778 12.5768 15.1865C12.7204 15.2605 12.8597 15.2953 12.9989 15.2953C13.347 15.2953 13.5733 15.0734 13.6473 14.9994L15.2747 13.3719C15.5271 13.1196 15.8012 12.9847 16.071 12.9847C16.4017 12.9847 16.6715 13.1892 16.8412 13.3719L19.4651 15.9915C19.9873 16.5137 19.983 17.0794 19.4521 17.632C19.2693 17.8278 19.0779 18.0149 18.8733 18.2107C18.5687 18.5066 18.2511 18.8112 17.9639 19.155C17.4635 19.6946 16.8673 19.947 16.0971 19.947C16.0232 19.947 15.9448 19.9426 15.8709 19.9383C14.4436 19.8469 13.1164 19.2899 12.1199 18.8156C9.41333 17.5058 7.03745 15.6477 5.06626 13.2893C3.44317 11.3355 2.35096 9.51658 1.62863 7.56714C1.18043 6.37049 1.01072 5.40883 1.08035 4.53419Z" fill="url(#paint0_linear)"/>
<defs>
<linearGradient id="paint0_linear" x1="10.4603" y1="0" x2="10.4603" y2="21" gradientUnits="userSpaceOnUse">
<stop stop-color="#B7D602"/>
<stop offset="1" stop-color="#68C316"/>
</linearGradient>
</defs>
</svg>
