<svg width="25" height="15" viewBox="0 0 25 15" fill="none" xmlns="http://www.w3.org/2000/svg">
<path d="M24.5947 6.47743C23.1916 4.67846 21.3742 3.19043 19.339 2.17431C17.2614 1.13706 15.0264 0.598877 12.6933 0.570654C12.629 0.568896 12.371 0.568896 12.3067 0.570654C9.97364 0.598926 7.73858 1.13706 5.66105 2.17431C3.62585 3.19043 1.80852 4.67841 0.405395 6.47743C-0.135132 7.17045 -0.135132 8.13847 0.405395 8.83148C1.80847 10.6305 3.62585 12.1185 5.66105 13.1346C7.73858 14.1719 9.97359 14.71 12.3067 14.7383C12.371 14.74 12.629 14.74 12.6933 14.7383C15.0264 14.71 17.2614 14.1719 19.339 13.1346C21.3742 12.1185 23.1915 10.6305 24.5947 8.83148C25.1352 8.13837 25.1352 7.17045 24.5947 6.47743ZM6.11539 12.2247C4.21501 11.2759 2.51784 9.88622 1.20735 8.206C0.954075 7.88124 0.954075 7.42768 1.20735 7.10292C2.51779 5.4227 4.21496 4.03305 6.11539 3.08423C6.65514 2.81479 7.20631 2.58178 7.76768 2.38452C6.32345 3.68276 5.41354 5.5642 5.41354 7.65444C5.41354 9.74476 6.3235 11.6264 7.76788 12.9245C7.2065 12.7273 6.65519 12.4942 6.11539 12.2247ZM12.5 13.7239C9.15328 13.7239 6.43053 11.0012 6.43053 7.65439C6.43053 4.30761 9.15328 1.58491 12.5 1.58491C15.8468 1.58491 18.5696 4.30766 18.5696 7.65444C18.5696 11.0012 15.8468 13.7239 12.5 13.7239ZM23.7928 8.20595C22.4823 9.88617 20.7851 11.2758 18.8847 12.2246C18.3456 12.4938 17.7948 12.7258 17.2341 12.9228C18.6773 11.6246 19.5866 9.74379 19.5866 7.65439C19.5866 5.56386 18.6764 3.68217 17.2319 2.38393C17.7934 2.58125 18.3449 2.81455 18.8848 3.08413C20.7851 4.03295 22.4823 5.4226 23.7928 7.10282C24.046 7.42763 24.046 7.88119 23.7928 8.20595Z" fill="url(#paint0_linear)"/>
<path d="M12.5 5.05695C11.0678 5.05695 9.90259 6.22213 9.90259 7.65435C9.90259 9.08658 11.0678 10.2518 12.5 10.2518C13.9322 10.2518 15.0974 9.08658 15.0974 7.65435C15.0974 6.22213 13.9323 5.05695 12.5 5.05695ZM12.5 9.23482C11.6286 9.23482 10.9195 8.52588 10.9195 7.65435C10.9195 6.78287 11.6285 6.07394 12.5 6.07394C13.3714 6.07394 14.0804 6.78287 14.0804 7.65435C14.0805 8.52588 13.3714 9.23482 12.5 9.23482Z" fill="url(#paint1_linear)"/>
<defs>
<linearGradient id="paint0_linear" x1="12.5" y1="0.569336" x2="12.5" y2="14.7396" gradientUnits="userSpaceOnUse">
<stop stop-color="#B7D602"/>
<stop offset="1" stop-color="#68C316"/>
</linearGradient>
<linearGradient id="paint1_linear" x1="12.5" y1="0.569336" x2="12.5" y2="14.7396" gradientUnits="userSpaceOnUse">
<stop stop-color="#B7D602"/>
<stop offset="1" stop-color="#68C316"/>
</linearGradient>
</defs>
</svg>
