<svg width="19" height="19" viewBox="0 0 19 19" fill="none" xmlns="http://www.w3.org/2000/svg">
<circle cx="9.5" cy="9.5" r="9.5" fill="url(#paint0_linear)"/>
<g clip-path="url(#clip0)">
<path d="M13.8351 5.36848C13.4065 5.13765 12.9283 5.58282 12.648 5.84663C12.005 6.47317 11.4609 7.19865 10.8508 7.85817C10.1748 8.58364 9.54826 9.30911 8.85577 10.0181C8.46005 10.4138 8.03137 10.8425 7.76756 11.3372C7.17399 10.7601 6.66286 10.1335 6.00334 9.62241C5.52519 9.25967 4.73377 8.99587 4.75025 9.86973C4.78323 11.0074 5.789 12.2275 6.53096 13.0025C6.84423 13.3322 7.25643 13.6785 7.73458 13.6949C8.31166 13.7279 8.90523 13.0354 9.25148 12.6562C9.86156 11.9967 10.3562 11.2547 10.9168 10.5787C11.6422 9.68836 12.3842 8.81447 13.0932 7.90763C13.5384 7.34704 14.9398 5.96202 13.8351 5.36848ZM5.4757 9.80378C5.45921 9.80378 5.44272 9.80378 5.40975 9.82024C5.34379 9.80378 5.29433 9.78726 5.22838 9.75429C5.27784 9.72131 5.36028 9.7378 5.4757 9.80378Z" fill="white"/>
</g>
<defs>
<linearGradient id="paint0_linear" x1="9.5" y1="0" x2="9.5" y2="19" gradientUnits="userSpaceOnUse">
<stop stop-color="#B7D602"/>
<stop offset="1" stop-color="#68C316"/>
</linearGradient>
<clipPath id="clip0">
<rect width="9.5" height="9.5" fill="white" transform="translate(4.75 4.75)"/>
</clipPath>
</defs>
</svg>
